EV - 20 (Quartus)/simulation/qsim/EV20.msim.vcd
$comment
	File created using the following command:
		vcd file EV20.msim.vcd -direction
$end
$date
	Tue May 26 19:31:42 2020
$end
$version
	ModelSim Version 10.5b
$end
$timescale
	1ps
$end

$scope module pc_mem_tb_vhd_vec_tst $end
$var wire 1 ! ADDR [10] $end
$var wire 1 " ADDR [9] $end
$var wire 1 # ADDR [8] $end
$var wire 1 $ ADDR [7] $end
$var wire 1 % ADDR [6] $end
$var wire 1 & ADDR [5] $end
$var wire 1 ' ADDR [4] $end
$var wire 1 ( ADDR [3] $end
$var wire 1 ) ADDR [2] $end
$var wire 1 * ADDR [1] $end
$var wire 1 + ADDR [0] $end
$var wire 1 , CLK_MTB $end
$var wire 1 - out_counter [10] $end
$var wire 1 . out_counter [9] $end
$var wire 1 / out_counter [8] $end
$var wire 1 0 out_counter [7] $end
$var wire 1 1 out_counter [6] $end
$var wire 1 2 out_counter [5] $end
$var wire 1 3 out_counter [4] $end
$var wire 1 4 out_counter [3] $end
$var wire 1 5 out_counter [2] $end
$var wire 1 6 out_counter [1] $end
$var wire 1 7 out_counter [0] $end
$var wire 1 8 OUT_MTB [13] $end
$var wire 1 9 OUT_MTB [12] $end
$var wire 1 : OUT_MTB [11] $end
$var wire 1 ; OUT_MTB [10] $end
$var wire 1 < OUT_MTB [9] $end
$var wire 1 = OUT_MTB [8] $end
$var wire 1 > OUT_MTB [7] $end
$var wire 1 ? OUT_MTB [6] $end
$var wire 1 @ OUT_MTB [5] $end
$var wire 1 A OUT_MTB [4] $end
$var wire 1 B OUT_MTB [3] $end
$var wire 1 C OUT_MTB [2] $end
$var wire 1 D OUT_MTB [1] $end
$var wire 1 E OUT_MTB [0] $end
$var wire 1 F PRELOAD $end

$scope module i1 $end
$var wire 1 G gnd $end
$var wire 1 H vcc $end
$var wire 1 I unknown $end
$var wire 1 J devoe $end
$var wire 1 K devclrn $end
$var wire 1 L devpor $end
$var wire 1 M ww_devoe $end
$var wire 1 N ww_devclrn $end
$var wire 1 O ww_devpor $end
$var wire 1 P ww_out_counter [10] $end
$var wire 1 Q ww_out_counter [9] $end
$var wire 1 R ww_out_counter [8] $end
$var wire 1 S ww_out_counter [7] $end
$var wire 1 T ww_out_counter [6] $end
$var wire 1 U ww_out_counter [5] $end
$var wire 1 V ww_out_counter [4] $end
$var wire 1 W ww_out_counter [3] $end
$var wire 1 X ww_out_counter [2] $end
$var wire 1 Y ww_out_counter [1] $end
$var wire 1 Z ww_out_counter [0] $end
$var wire 1 [ ww_PRELOAD $end
$var wire 1 \ ww_CLK_MTB $end
$var wire 1 ] ww_ADDR [10] $end
$var wire 1 ^ ww_ADDR [9] $end
$var wire 1 _ ww_ADDR [8] $end
$var wire 1 ` ww_ADDR [7] $end
$var wire 1 a ww_ADDR [6] $end
$var wire 1 b ww_ADDR [5] $end
$var wire 1 c ww_ADDR [4] $end
$var wire 1 d ww_ADDR [3] $end
$var wire 1 e ww_ADDR [2] $end
$var wire 1 f ww_ADDR [1] $end
$var wire 1 g ww_ADDR [0] $end
$var wire 1 h ww_OUT_MTB [13] $end
$var wire 1 i ww_OUT_MTB [12] $end
$var wire 1 j ww_OUT_MTB [11] $end
$var wire 1 k ww_OUT_MTB [10] $end
$var wire 1 l ww_OUT_MTB [9] $end
$var wire 1 m ww_OUT_MTB [8] $end
$var wire 1 n ww_OUT_MTB [7] $end
$var wire 1 o ww_OUT_MTB [6] $end
$var wire 1 p ww_OUT_MTB [5] $end
$var wire 1 q ww_OUT_MTB [4] $end
$var wire 1 r ww_OUT_MTB [3] $end
$var wire 1 s ww_OUT_MTB [2] $end
$var wire 1 t ww_OUT_MTB [1] $end
$var wire 1 u ww_OUT_MTB [0] $end
$var wire 1 v \inst|altsyncram_component|auto_generated|ram_block1a13_PORTAADDR_bus\ [10] $end
$var wire 1 w \inst|altsyncram_component|auto_generated|ram_block1a13_PORTAADDR_bus\ [9] $end
$var wire 1 x \inst|altsyncram_component|auto_generated|ram_block1a13_PORTAADDR_bus\ [8] $end
$var wire 1 y \inst|altsyncram_component|auto_generated|ram_block1a13_PORTAADDR_bus\ [7] $end
$var wire 1 z \inst|altsyncram_component|auto_generated|ram_block1a13_PORTAADDR_bus\ [6] $end
$var wire 1 { \inst|altsyncram_component|auto_generated|ram_block1a13_PORTAADDR_bus\ [5] $end
$var wire 1 | \inst|altsyncram_component|auto_generated|ram_block1a13_PORTAADDR_bus\ [4] $end
$var wire 1 } \inst|altsyncram_component|auto_generated|ram_block1a13_PORTAADDR_bus\ [3] $end
$var wire 1 ~ \inst|altsyncram_component|auto_generated|ram_block1a13_PORTAADDR_bus\ [2] $end
$var wire 1 !! \inst|altsyncram_component|auto_generated|ram_block1a13_PORTAADDR_bus\ [1] $end
$var wire 1 "! \inst|altsyncram_component|auto_generated|ram_block1a13_PORTAADDR_bus\ [0] $end
$var wire 1 #! \inst|altsyncram_component|auto_generated|ram_block1a13_PORTADATAOUT_bus\ [0] $end
$var wire 1 $! \inst|altsyncram_component|auto_generated|ram_block1a12_PORTAADDR_bus\ [10] $end
$var wire 1 %! \inst|altsyncram_component|auto_generated|ram_block1a12_PORTAADDR_bus\ [9] $end
$var wire 1 &! \inst|altsyncram_component|auto_generated|ram_block1a12_PORTAADDR_bus\ [8] $end
$var wire 1 '! \inst|altsyncram_component|auto_generated|ram_block1a12_PORTAADDR_bus\ [7] $end
$var wire 1 (! \inst|altsyncram_component|auto_generated|ram_block1a12_PORTAADDR_bus\ [6] $end
$var wire 1 )! \inst|altsyncram_component|auto_generated|ram_block1a12_PORTAADDR_bus\ [5] $end
$var wire 1 *! \inst|altsyncram_component|auto_generated|ram_block1a12_PORTAADDR_bus\ [4] $end
$var wire 1 +! \inst|altsyncram_component|auto_generated|ram_block1a12_PORTAADDR_bus\ [3] $end
$var wire 1 ,! \inst|altsyncram_component|auto_generated|ram_block1a12_PORTAADDR_bus\ [2] $end
$var wire 1 -! \inst|altsyncram_component|auto_generated|ram_block1a12_PORTAADDR_bus\ [1] $end
$var wire 1 .! \inst|altsyncram_component|auto_generated|ram_block1a12_PORTAADDR_bus\ [0] $end
$var wire 1 /! \inst|altsyncram_component|auto_generated|ram_block1a12_PORTADATAOUT_bus\ [0] $end
$var wire 1 0! \inst|altsyncram_component|auto_generated|ram_block1a11_PORTAADDR_bus\ [10] $end
$var wire 1 1! \inst|altsyncram_component|auto_generated|ram_block1a11_PORTAADDR_bus\ [9] $end
$var wire 1 2! \inst|altsyncram_component|auto_generated|ram_block1a11_PORTAADDR_bus\ [8] $end
$var wire 1 3! \inst|altsyncram_component|auto_generated|ram_block1a11_PORTAADDR_bus\ [7] $end
$var wire 1 4! \inst|altsyncram_component|auto_generated|ram_block1a11_PORTAADDR_bus\ [6] $end
$var wire 1 5! \inst|altsyncram_component|auto_generated|ram_block1a11_PORTAADDR_bus\ [5] $end
$var wire 1 6! \inst|altsyncram_component|auto_generated|ram_block1a11_PORTAADDR_bus\ [4] $end
$var wire 1 7! \inst|altsyncram_component|auto_generated|ram_block1a11_PORTAADDR_bus\ [3] $end
$var wire 1 8! \inst|altsyncram_component|auto_generated|ram_block1a11_PORTAADDR_bus\ [2] $end
$var wire 1 9! \inst|altsyncram_component|auto_generated|ram_block1a11_PORTAADDR_bus\ [1] $end
$var wire 1 :! \inst|altsyncram_component|auto_generated|ram_block1a11_PORTAADDR_bus\ [0] $end
$var wire 1 ;! \inst|altsyncram_component|auto_generated|ram_block1a11_PORTADATAOUT_bus\ [0] $end
$var wire 1 <! \inst|altsyncram_component|auto_generated|ram_block1a10_PORTAADDR_bus\ [10] $end
$var wire 1 =! \inst|altsyncram_component|auto_generated|ram_block1a10_PORTAADDR_bus\ [9] $end
$var wire 1 >! \inst|altsyncram_component|auto_generated|ram_block1a10_PORTAADDR_bus\ [8] $end
$var wire 1 ?! \inst|altsyncram_component|auto_generated|ram_block1a10_PORTAADDR_bus\ [7] $end
$var wire 1 @! \inst|altsyncram_component|auto_generated|ram_block1a10_PORTAADDR_bus\ [6] $end
$var wire 1 A! \inst|altsyncram_component|auto_generated|ram_block1a10_PORTAADDR_bus\ [5] $end
$var wire 1 B! \inst|altsyncram_component|auto_generated|ram_block1a10_PORTAADDR_bus\ [4] $end
$var wire 1 C! \inst|altsyncram_component|auto_generated|ram_block1a10_PORTAADDR_bus\ [3] $end
$var wire 1 D! \inst|altsyncram_component|auto_generated|ram_block1a10_PORTAADDR_bus\ [2] $end
$var wire 1 E! \inst|altsyncram_component|auto_generated|ram_block1a10_PORTAADDR_bus\ [1] $end
$var wire 1 F! \inst|altsyncram_component|auto_generated|ram_block1a10_PORTAADDR_bus\ [0] $end
$var wire 1 G! \inst|altsyncram_component|auto_generated|ram_block1a10_PORTADATAOUT_bus\ [0] $end
$var wire 1 H! \inst|altsyncram_component|auto_generated|ram_block1a9_PORTAADDR_bus\ [10] $end
$var wire 1 I! \inst|altsyncram_component|auto_generated|ram_block1a9_PORTAADDR_bus\ [9] $end
$var wire 1 J! \inst|altsyncram_component|auto_generated|ram_block1a9_PORTAADDR_bus\ [8] $end
$var wire 1 K! \inst|altsyncram_component|auto_generated|ram_block1a9_PORTAADDR_bus\ [7] $end
$var wire 1 L! \inst|altsyncram_component|auto_generated|ram_block1a9_PORTAADDR_bus\ [6] $end
$var wire 1 M! \inst|altsyncram_component|auto_generated|ram_block1a9_PORTAADDR_bus\ [5] $end
$var wire 1 N! \inst|altsyncram_component|auto_generated|ram_block1a9_PORTAADDR_bus\ [4] $end
$var wire 1 O! \inst|altsyncram_component|auto_generated|ram_block1a9_PORTAADDR_bus\ [3] $end
$var wire 1 P! \inst|altsyncram_component|auto_generated|ram_block1a9_PORTAADDR_bus\ [2] $end
$var wire 1 Q! \inst|altsyncram_component|auto_generated|ram_block1a9_PORTAADDR_bus\ [1] $end
$var wire 1 R! \inst|altsyncram_component|auto_generated|ram_block1a9_PORTAADDR_bus\ [0] $end
$var wire 1 S! \inst|altsyncram_component|auto_generated|ram_block1a9_PORTADATAOUT_bus\ [0] $end
$var wire 1 T! \inst|altsyncram_component|auto_generated|ram_block1a8_PORTAADDR_bus\ [10] $end
$var wire 1 U! \inst|altsyncram_component|auto_generated|ram_block1a8_PORTAADDR_bus\ [9] $end
$var wire 1 V! \inst|altsyncram_component|auto_generated|ram_block1a8_PORTAADDR_bus\ [8] $end
$var wire 1 W! \inst|altsyncram_component|auto_generated|ram_block1a8_PORTAADDR_bus\ [7] $end
$var wire 1 X! \inst|altsyncram_component|auto_generated|ram_block1a8_PORTAADDR_bus\ [6] $end
$var wire 1 Y! \inst|altsyncram_component|auto_generated|ram_block1a8_PORTAADDR_bus\ [5] $end
$var wire 1 Z! \inst|altsyncram_component|auto_generated|ram_block1a8_PORTAADDR_bus\ [4] $end
$var wire 1 [! \inst|altsyncram_component|auto_generated|ram_block1a8_PORTAADDR_bus\ [3] $end
$var wire 1 \! \inst|altsyncram_component|auto_generated|ram_block1a8_PORTAADDR_bus\ [2] $end
$var wire 1 ]! \inst|altsyncram_component|auto_generated|ram_block1a8_PORTAADDR_bus\ [1] $end
$var wire 1 ^! \inst|altsyncram_component|auto_generated|ram_block1a8_PORTAADDR_bus\ [0] $end
$var wire 1 _! \inst|altsyncram_component|auto_generated|ram_block1a8_PORTADATAOUT_bus\ [0] $end
$var wire 1 `! \inst|altsyncram_component|auto_generated|ram_block1a7_PORTAADDR_bus\ [10] $end
$var wire 1 a! \inst|altsyncram_component|auto_generated|ram_block1a7_PORTAADDR_bus\ [9] $end
$var wire 1 b! \inst|altsyncram_component|auto_generated|ram_block1a7_PORTAADDR_bus\ [8] $end
$var wire 1 c! \inst|altsyncram_component|auto_generated|ram_block1a7_PORTAADDR_bus\ [7] $end
$var wire 1 d! \inst|altsyncram_component|auto_generated|ram_block1a7_PORTAADDR_bus\ [6] $end
$var wire 1 e! \inst|altsyncram_component|auto_generated|ram_block1a7_PORTAADDR_bus\ [5] $end
$var wire 1 f! \inst|altsyncram_component|auto_generated|ram_block1a7_PORTAADDR_bus\ [4] $end
$var wire 1 g! \inst|altsyncram_component|auto_generated|ram_block1a7_PORTAADDR_bus\ [3] $end
$var wire 1 h! \inst|altsyncram_component|auto_generated|ram_block1a7_PORTAADDR_bus\ [2] $end
$var wire 1 i! \inst|altsyncram_component|auto_generated|ram_block1a7_PORTAADDR_bus\ [1] $end
$var wire 1 j! \inst|altsyncram_component|auto_generated|ram_block1a7_PORTAADDR_bus\ [0] $end
$var wire 1 k! \inst|altsyncram_component|auto_generated|ram_block1a7_PORTADATAOUT_bus\ [0] $end
$var wire 1 l! \inst|altsyncram_component|auto_generated|ram_block1a6_PORTAADDR_bus\ [10] $end
$var wire 1 m! \inst|altsyncram_component|auto_generated|ram_block1a6_PORTAADDR_bus\ [9] $end
$var wire 1 n! \inst|altsyncram_component|auto_generated|ram_block1a6_PORTAADDR_bus\ [8] $end
$var wire 1 o! \inst|altsyncram_component|auto_generated|ram_block1a6_PORTAADDR_bus\ [7] $end
$var wire 1 p! \inst|altsyncram_component|auto_generated|ram_block1a6_PORTAADDR_bus\ [6] $end
$var wire 1 q! \inst|altsyncram_component|auto_generated|ram_block1a6_PORTAADDR_bus\ [5] $end
$var wire 1 r! \inst|altsyncram_component|auto_generated|ram_block1a6_PORTAADDR_bus\ [4] $end
$var wire 1 s! \inst|altsyncram_component|auto_generated|ram_block1a6_PORTAADDR_bus\ [3] $end
$var wire 1 t! \inst|altsyncram_component|auto_generated|ram_block1a6_PORTAADDR_bus\ [2] $end
$var wire 1 u! \inst|altsyncram_component|auto_generated|ram_block1a6_PORTAADDR_bus\ [1] $end
$var wire 1 v! \inst|altsyncram_component|auto_generated|ram_block1a6_PORTAADDR_bus\ [0] $end
$var wire 1 w! \inst|altsyncram_component|auto_generated|ram_block1a6_PORTADATAOUT_bus\ [0] $end
$var wire 1 x! \inst|altsyncram_component|auto_generated|ram_block1a5_PORTAADDR_bus\ [10] $end
$var wire 1 y! \inst|altsyncram_component|auto_generated|ram_block1a5_PORTAADDR_bus\ [9] $end
$var wire 1 z! \inst|altsyncram_component|auto_generated|ram_block1a5_PORTAADDR_bus\ [8] $end
$var wire 1 {! \inst|altsyncram_component|auto_generated|ram_block1a5_PORTAADDR_bus\ [7] $end
$var wire 1 |! \inst|altsyncram_component|auto_generated|ram_block1a5_PORTAADDR_bus\ [6] $end
$var wire 1 }! \inst|altsyncram_component|auto_generated|ram_block1a5_PORTAADDR_bus\ [5] $end
$var wire 1 ~! \inst|altsyncram_component|auto_generated|ram_block1a5_PORTAADDR_bus\ [4] $end
$var wire 1 !" \inst|altsyncram_component|auto_generated|ram_block1a5_PORTAADDR_bus\ [3] $end
$var wire 1 "" \inst|altsyncram_component|auto_generated|ram_block1a5_PORTAADDR_bus\ [2] $end
$var wire 1 #" \inst|altsyncram_component|auto_generated|ram_block1a5_PORTAADDR_bus\ [1] $end
$var wire 1 $" \inst|altsyncram_component|auto_generated|ram_block1a5_PORTAADDR_bus\ [0] $end
$var wire 1 %" \inst|altsyncram_component|auto_generated|ram_block1a5_PORTADATAOUT_bus\ [0] $end
$var wire 1 &" \inst|altsyncram_component|auto_generated|ram_block1a4_PORTAADDR_bus\ [10] $end
$var wire 1 '" \inst|altsyncram_component|auto_generated|ram_block1a4_PORTAADDR_bus\ [9] $end
$var wire 1 (" \inst|altsyncram_component|auto_generated|ram_block1a4_PORTAADDR_bus\ [8] $end
$var wire 1 )" \inst|altsyncram_component|auto_generated|ram_block1a4_PORTAADDR_bus\ [7] $end
$var wire 1 *" \inst|altsyncram_component|auto_generated|ram_block1a4_PORTAADDR_bus\ [6] $end
$var wire 1 +" \inst|altsyncram_component|auto_generated|ram_block1a4_PORTAADDR_bus\ [5] $end
$var wire 1 ," \inst|altsyncram_component|auto_generated|ram_block1a4_PORTAADDR_bus\ [4] $end
$var wire 1 -" \inst|altsyncram_component|auto_generated|ram_block1a4_PORTAADDR_bus\ [3] $end
$var wire 1 ." \inst|altsyncram_component|auto_generated|ram_block1a4_PORTAADDR_bus\ [2] $end
$var wire 1 /" \inst|altsyncram_component|auto_generated|ram_block1a4_PORTAADDR_bus\ [1] $end
$var wire 1 0" \inst|altsyncram_component|auto_generated|ram_block1a4_PORTAADDR_bus\ [0] $end
$var wire 1 1" \inst|altsyncram_component|auto_generated|ram_block1a4_PORTADATAOUT_bus\ [0] $end
$var wire 1 2" \inst|altsyncram_component|auto_generated|ram_block1a3_PORTAADDR_bus\ [10] $end
$var wire 1 3" \inst|altsyncram_component|auto_generated|ram_block1a3_PORTAADDR_bus\ [9] $end
$var wire 1 4" \inst|altsyncram_component|auto_generated|ram_block1a3_PORTAADDR_bus\ [8] $end
$var wire 1 5" \inst|altsyncram_component|auto_generated|ram_block1a3_PORTAADDR_bus\ [7] $end
$var wire 1 6" \inst|altsyncram_component|auto_generated|ram_block1a3_PORTAADDR_bus\ [6] $end
$var wire 1 7" \inst|altsyncram_component|auto_generated|ram_block1a3_PORTAADDR_bus\ [5] $end
$var wire 1 8" \inst|altsyncram_component|auto_generated|ram_block1a3_PORTAADDR_bus\ [4] $end
$var wire 1 9" \inst|altsyncram_component|auto_generated|ram_block1a3_PORTAADDR_bus\ [3] $end
$var wire 1 :" \inst|altsyncram_component|auto_generated|ram_block1a3_PORTAADDR_bus\ [2] $end
$var wire 1 ;" \inst|altsyncram_component|auto_generated|ram_block1a3_PORTAADDR_bus\ [1] $end
$var wire 1 <" \inst|altsyncram_component|auto_generated|ram_block1a3_PORTAADDR_bus\ [0] $end
$var wire 1 =" \inst|altsyncram_component|auto_generated|ram_block1a3_PORTADATAOUT_bus\ [0] $end
$var wire 1 >" \inst|altsyncram_component|auto_generated|ram_block1a2_PORTAADDR_bus\ [10] $end
$var wire 1 ?" \inst|altsyncram_component|auto_generated|ram_block1a2_PORTAADDR_bus\ [9] $end
$var wire 1 @" \inst|altsyncram_component|auto_generated|ram_block1a2_PORTAADDR_bus\ [8] $end
$var wire 1 A" \inst|altsyncram_component|auto_generated|ram_block1a2_PORTAADDR_bus\ [7] $end
$var wire 1 B" \inst|altsyncram_component|auto_generated|ram_block1a2_PORTAADDR_bus\ [6] $end
$var wire 1 C" \inst|altsyncram_component|auto_generated|ram_block1a2_PORTAADDR_bus\ [5] $end
$var wire 1 D" \inst|altsyncram_component|auto_generated|ram_block1a2_PORTAADDR_bus\ [4] $end
$var wire 1 E" \inst|altsyncram_component|auto_generated|ram_block1a2_PORTAADDR_bus\ [3] $end
$var wire 1 F" \inst|altsyncram_component|auto_generated|ram_block1a2_PORTAADDR_bus\ [2] $end
$var wire 1 G" \inst|altsyncram_component|auto_generated|ram_block1a2_PORTAADDR_bus\ [1] $end
$var wire 1 H" \inst|altsyncram_component|auto_generated|ram_block1a2_PORTAADDR_bus\ [0] $end
$var wire 1 I" \inst|altsyncram_component|auto_generated|ram_block1a2_PORTADATAOUT_bus\ [0] $end
$var wire 1 J" \inst|altsyncram_component|auto_generated|ram_block1a1_PORTAADDR_bus\ [10] $end
$var wire 1 K" \inst|altsyncram_component|auto_generated|ram_block1a1_PORTAADDR_bus\ [9] $end
$var wire 1 L" \inst|altsyncram_component|auto_generated|ram_block1a1_PORTAADDR_bus\ [8] $end
$var wire 1 M" \inst|altsyncram_component|auto_generated|ram_block1a1_PORTAADDR_bus\ [7] $end
$var wire 1 N" \inst|altsyncram_component|auto_generated|ram_block1a1_PORTAADDR_bus\ [6] $end
$var wire 1 O" \inst|altsyncram_component|auto_generated|ram_block1a1_PORTAADDR_bus\ [5] $end
$var wire 1 P" \inst|altsyncram_component|auto_generated|ram_block1a1_PORTAADDR_bus\ [4] $end
$var wire 1 Q" \inst|altsyncram_component|auto_generated|ram_block1a1_PORTAADDR_bus\ [3] $end
$var wire 1 R" \inst|altsyncram_component|auto_generated|ram_block1a1_PORTAADDR_bus\ [2] $end
$var wire 1 S" \inst|altsyncram_component|auto_generated|ram_block1a1_PORTAADDR_bus\ [1] $end
$var wire 1 T" \inst|altsyncram_component|auto_generated|ram_block1a1_PORTAADDR_bus\ [0] $end
$var wire 1 U" \inst|altsyncram_component|auto_generated|ram_block1a1_PORTADATAOUT_bus\ [0] $end
$var wire 1 V" \inst|altsyncram_component|auto_generated|ram_block1a0_PORTAADDR_bus\ [10] $end
$var wire 1 W" \inst|altsyncram_component|auto_generated|ram_block1a0_PORTAADDR_bus\ [9] $end
$var wire 1 X" \inst|altsyncram_component|auto_generated|ram_block1a0_PORTAADDR_bus\ [8] $end
$var wire 1 Y" \inst|altsyncram_component|auto_generated|ram_block1a0_PORTAADDR_bus\ [7] $end
$var wire 1 Z" \inst|altsyncram_component|auto_generated|ram_block1a0_PORTAADDR_bus\ [6] $end
$var wire 1 [" \inst|altsyncram_component|auto_generated|ram_block1a0_PORTAADDR_bus\ [5] $end
$var wire 1 \" \inst|altsyncram_component|auto_generated|ram_block1a0_PORTAADDR_bus\ [4] $end
$var wire 1 ]" \inst|altsyncram_component|auto_generated|ram_block1a0_PORTAADDR_bus\ [3] $end
$var wire 1 ^" \inst|altsyncram_component|auto_generated|ram_block1a0_PORTAADDR_bus\ [2] $end
$var wire 1 _" \inst|altsyncram_component|auto_generated|ram_block1a0_PORTAADDR_bus\ [1] $end
$var wire 1 `" \inst|altsyncram_component|auto_generated|ram_block1a0_PORTAADDR_bus\ [0] $end
$var wire 1 a" \inst|altsyncram_component|auto_generated|ram_block1a0_PORTADATAOUT_bus\ [0] $end
$var wire 1 b" \out_counter[10]~output_o\ $end
$var wire 1 c" \out_counter[9]~output_o\ $end
$var wire 1 d" \out_counter[8]~output_o\ $end
$var wire 1 e" \out_counter[7]~output_o\ $end
$var wire 1 f" \out_counter[6]~output_o\ $end
$var wire 1 g" \out_counter[5]~output_o\ $end
$var wire 1 h" \out_counter[4]~output_o\ $end
$var wire 1 i" \out_counter[3]~output_o\ $end
$var wire 1 j" \out_counter[2]~output_o\ $end
$var wire 1 k" \out_counter[1]~output_o\ $end
$var wire 1 l" \out_counter[0]~output_o\ $end
$var wire 1 m" \OUT_MTB[13]~output_o\ $end
$var wire 1 n" \OUT_MTB[12]~output_o\ $end
$var wire 1 o" \OUT_MTB[11]~output_o\ $end
$var wire 1 p" \OUT_MTB[10]~output_o\ $end
$var wire 1 q" \OUT_MTB[9]~output_o\ $end
$var wire 1 r" \OUT_MTB[8]~output_o\ $end
$var wire 1 s" \OUT_MTB[7]~output_o\ $end
$var wire 1 t" \OUT_MTB[6]~output_o\ $end
$var wire 1 u" \OUT_MTB[5]~output_o\ $end
$var wire 1 v" \OUT_MTB[4]~output_o\ $end
$var wire 1 w" \OUT_MTB[3]~output_o\ $end
$var wire 1 x" \OUT_MTB[2]~output_o\ $end
$var wire 1 y" \OUT_MTB[1]~output_o\ $end
$var wire 1 z" \OUT_MTB[0]~output_o\ $end
$var wire 1 {" \CLK_MTB~input_o\ $end
$var wire 1 |" \PRELOAD~input_o\ $end
$var wire 1 }" \inst1|inst|sub|78~combout\ $end
$var wire 1 ~" \ADDR[0]~input_o\ $end
$var wire 1 !# \inst1|inst2|sub|107~combout\ $end
$var wire 1 "# \inst1|inst2|sub|110~q\ $end
$var wire 1 ## \inst1|inst2|sub|104~combout\ $end
$var wire 1 $# \inst1|inst|sub|9~q\ $end
$var wire 1 %# \inst1|inst|sub|90~combout\ $end
$var wire 1 &# \ADDR[1]~input_o\ $end
$var wire 1 '# \inst1|inst|sub|87~q\ $end
$var wire 1 (# \inst1|inst|sub|97~combout\ $end
$var wire 1 )# \ADDR[2]~input_o\ $end
$var wire 1 *# \inst1|inst|sub|99~q\ $end
$var wire 1 +# \inst1|inst|sub|106~0_combout\ $end
$var wire 1 ,# \inst1|inst|sub|107~combout\ $end
$var wire 1 -# \ADDR[3]~input_o\ $end
$var wire 1 .# \inst1|inst|sub|110~q\ $end
$var wire 1 /# \inst1|inst1|sub|78~combout\ $end
$var wire 1 0# \ADDR[4]~input_o\ $end
$var wire 1 1# \inst1|inst1|sub|9~q\ $end
$var wire 1 2# \inst1|inst1|sub|90~combout\ $end
$var wire 1 3# \ADDR[5]~input_o\ $end
$var wire 1 4# \inst1|inst1|sub|87~q\ $end
$var wire 1 5# \inst1|inst11|4~0_combout\ $end
$var wire 1 6# \inst1|inst1|sub|97~combout\ $end
$var wire 1 7# \ADDR[6]~input_o\ $end
$var wire 1 8# \inst1|inst1|sub|99~q\ $end
$var wire 1 9# \inst1|inst1|sub|107~combout\ $end
$var wire 1 :# \ADDR[7]~input_o\ $end
$var wire 1 ;# \inst1|inst1|sub|110~q\ $end
$var wire 1 <# \inst1|inst2|sub|78~combout\ $end
$var wire 1 =# \ADDR[8]~input_o\ $end
$var wire 1 ># \inst1|inst2|sub|9~q\ $end
$var wire 1 ?# \inst1|inst2|sub|89~0_combout\ $end
$var wire 1 @# \inst1|inst2|sub|89~1_combout\ $end
$var wire 1 A# \inst1|inst2|sub|90~combout\ $end
$var wire 1 B# \ADDR[9]~input_o\ $end
$var wire 1 C# \inst1|inst2|sub|87~q\ $end
$var wire 1 D# \inst1|inst2|sub|97~combout\ $end
$var wire 1 E# \ADDR[10]~input_o\ $end
$var wire 1 F# \inst1|inst2|sub|99~q\ $end
$var wire 1 G# \inst|altsyncram_component|auto_generated|q_a\ [13] $end
$var wire 1 H# \inst|altsyncram_component|auto_generated|q_a\ [12] $end
$var wire 1 I# \inst|altsyncram_component|auto_generated|q_a\ [11] $end
$var wire 1 J# \inst|altsyncram_component|auto_generated|q_a\ [10] $end
$var wire 1 K# \inst|altsyncram_component|auto_generated|q_a\ [9] $end
$var wire 1 L# \inst|altsyncram_component|auto_generated|q_a\ [8] $end
$var wire 1 M# \inst|altsyncram_component|auto_generated|q_a\ [7] $end
$var wire 1 N# \inst|altsyncram_component|auto_generated|q_a\ [6] $end
$var wire 1 O# \inst|altsyncram_component|auto_generated|q_a\ [5] $end
$var wire 1 P# \inst|altsyncram_component|auto_generated|q_a\ [4] $end
$var wire 1 Q# \inst|altsyncram_component|auto_generated|q_a\ [3] $end
$var wire 1 R# \inst|altsyncram_component|auto_generated|q_a\ [2] $end
$var wire 1 S# \inst|altsyncram_component|auto_generated|q_a\ [1] $end
$var wire 1 T# \inst|altsyncram_component|auto_generated|q_a\ [0] $end
$var wire 1 U# \inst1|inst2|sub|ALT_INV_104~combout\ $end
$upscope $end
$upscope $end
$enddefinitions $end
#0
$dumpvars
0,
0F
0G
1H
xI
1J
1K
1L
1M
1N
1O
0[
0\
0b"
0c"
0d"
0e"
0f"
0g"
0h"
0i"
0j"
0k"
0l"
0m"
0n"
0o"
0p"
0q"
0r"
0s"
0t"
0u"
0v"
0w"
0x"
0y"
0z"
0{"
0|"
1}"
0~"
0!#
0"#
0##
0$#
0%#
0&#
0'#
0(#
0)#
0*#
0+#
0,#
0-#
0.#
0/#
00#
01#
02#
03#
04#
05#
06#
07#
08#
09#
0:#
0;#
0<#
0=#
0>#
0?#
0@#
0A#
0B#
0C#
0D#
0E#
0F#
1U#
0!
0"
0#
0$
0%
0&
0'
0(
0)
0*
0+
0P
0Q
0R
0S
0T
0U
0V
0W
0X
0Y
0Z
0]
0^
0_
0`
0a
0b
0c
0d
0e
0f
0g
0h
0i
0j
0k
0l
0m
0n
0o
0p
0q
0r
0s
0t
0u
0#!
0/!
0;!
0G!
0S!
0_!
0k!
0w!
0%"
01"
0="
0I"
0U"
0a"
0G#
0H#
0I#
0J#
0K#
0L#
0M#
0N#
0O#
0P#
0Q#
0R#
0S#
0T#
0-
0.
0/
00
01
02
03
04
05
06
07
08
09
0:
0;
0<
0=
0>
0?
0@
0A
0B
0C
0D
0E
0v
0w
0x
0y
0z
0{
0|
0}
0~
0!!
0"!
0$!
0%!
0&!
0'!
0(!
0)!
0*!
0+!
0,!
0-!
0.!
00!
01!
02!
03!
04!
05!
06!
07!
08!
09!
0:!
0<!
0=!
0>!
0?!
0@!
0A!
0B!
0C!
0D!
0E!
0F!
0H!
0I!
0J!
0K!
0L!
0M!
0N!
0O!
0P!
0Q!
0R!
0T!
0U!
0V!
0W!
0X!
0Y!
0Z!
0[!
0\!
0]!
0^!
0`!
0a!
0b!
0c!
0d!
0e!
0f!
0g!
0h!
0i!
0j!
0l!
0m!
0n!
0o!
0p!
0q!
0r!
0s!
0t!
0u!
0v!
0x!
0y!
0z!
0{!
0|!
0}!
0~!
0!"
0""
0#"
0$"
0&"
0'"
0("
0)"
0*"
0+"
0,"
0-"
0."
0/"
00"
02"
03"
04"
05"
06"
07"
08"
09"
0:"
0;"
0<"
0>"
0?"
0@"
0A"
0B"
0C"
0D"
0E"
0F"
0G"
0H"
0J"
0K"
0L"
0M"
0N"
0O"
0P"
0Q"
0R"
0S"
0T"
0V"
0W"
0X"
0Y"
0Z"
0["
0\"
0]"
0^"
0_"
0`"
$end
#10000
1,
1\
1{"
1$#
1`"
1T"
1H"
1<"
10"
1$"
1v!
1j!
1^!
1R!
1F!
1:!
1.!
1"!
0}"
1%#
1l"
1Z
17
#20000
0,
0\
0{"
#30000
1,
1\
1{"
0$#
1'#
0`"
1_"
0T"
1S"
0H"
1G"
0<"
1;"
00"
1/"
0$"
1#"
0v!
1u!
0j!
1i!
0^!
1]!
0R!
1Q!
0F!
1E!
0:!
19!
0.!
1-!
0"!
1!!
1}"
1k"
0l"
1Y
0Z
07
16
#30500
1a"
1T#
1z"
1u
1E
#40000
0,
0\
0{"
#50000
1,
1\
1{"
1$#
1`"
1T"
1H"
1<"
10"
1$"
1v!
1j!
1^!
1R!
1F!
1:!
1.!
1"!
0}"
0%#
1(#
1l"
1Z
17
#50500
0a"
1U"
0T#
1S#
1y"
0z"
1t
0u
0E
1D
#60000
0,
0\
0{"
